Lab/log/console.log
# ELBREAD: Elaboration process.
# ELBREAD: Elaboration time 0.1 [s].
asim -O5 +access +r +m+testbench testbench
# ELBREAD: Elaboration process.
# ELBREAD: Elaboration time 0.0 [s].
# VSIM: Stack memory: 32MB
# VSIM: Retval memory: 32MB
# 
# KERNEL: Main thread initiated.
# KERNEL: Kernel process initialization phase.
# ELAB2: Elaboration final pass...
# ELAB2: Create instances ...
# KERNEL: Time resolution set to 1ps.
# ELAB2: Create instances complete.
# SLP: Started
# SLP: Finished. Using existing simulator library
# SLP: 0 primitives and 2 (66.67%) other processes in SLP
# SLP: 3 (0.85%) signals in SLP and 6 (1.70%) interface signals
# ELAB2: Elaboration final pass complete - time: 0.2 [s].
# KERNEL: SLP loading done - time: 1.5 [s].
# KERNEL: Warning: You are using the Active-HDL Student Edition. The performance of simulation is running at a reduced rate.
# KERNEL: Warning: Contact Aldec for available upgrade options - sales@aldec.com.
# KERNEL: SLP simulation initialization done - time: 0.0 [s].
# KERNEL: Kernel process initialization done.
# Allocation: Simulator allocated 5593 kB (elbread=459 elab2=4967 kernel=166 sdf=0)
# KERNEL: ASDB file was created in location \\Mac\Home\Documents\Labos\Verificacion\Lab1\Lab\src\wave.asdb
#  21:44, domingo, 21 de enero de 2024
#  Simulation has been initialized
run 100 ns
# KERNEL: GOOD: Real: 1 == Expected: 1, Time: 30
# KERNEL: GOOD: Real: 1 == Expected: 1, Time: 50
# KERNEL: GOOD: Real: 0 == Expected: 0, Time: 70
# KERNEL: GOOD: Real: 0 == Expected: 0, Time: 90
# KERNEL: GOOD: Real: 0 == Expected: 0, Time: 110
# KERNEL: GOOD: Real: 0 == Expected: 0, Time: 130
# KERNEL: GOOD: Real: 0 == Expected: 0, Time: 150
# KERNEL: GOOD: Real: 0 == Expected: 0, Time: 170
# KERNEL: GOOD: Real: 1 == Expected: 1, Time: 190
# KERNEL: GOOD: Real: 0 == Expected: 0, Time: 210
# KERNEL: GOOD: Real: 0 == Expected: 0, Time: 230
# KERNEL: GOOD: Real: 1 == Expected: 1, Time: 250
# KERNEL: GOOD: Real: 0 == Expected: 0, Time: 270
# KERNEL: GOOD: Real: 0 == Expected: 0, Time: 290
# KERNEL: GOOD: Real: 1 == Expected: 1, Time: 310
# KERNEL: GOOD: Real: 0 == Expected: 0, Time: 330
# KERNEL: GOOD: Real: 1 == Expected: 1, Time: 350
# KERNEL: GOOD: Real: 0 == Expected: 0, Time: 370
# KERNEL: GOOD: Real: 1 == Expected: 1, Time: 390
# KERNEL: GOOD: Real: 0 == Expected: 0, Time: 410
# KERNEL: GOOD: Real: 0 == Expected: 0, Time: 430
# KERNEL: GOOD: Real: 1 == Expected: 1, Time: 450
# KERNEL: GOOD: Real: 0 == Expected: 0, Time: 470
# KERNEL: GOOD: Real: 1 == Expected: 1, Time: 490
# KERNEL: GOOD: Real: 1 == Expected: 1, Time: 510
# KERNEL: GOOD: Real: 1 == Expected: 1, Time: 530
# KERNEL: GOOD: Real: 0 == Expected: 0, Time: 550
# KERNEL: GOOD: Real: 1 == Expected: 1, Time: 570
# KERNEL: GOOD: Real: 0 == Expected: 0, Time: 590
# KERNEL: GOOD: Real: 0 == Expected: 0, Time: 610
# KERNEL: GOOD: Real: 0 == Expected: 0, Time: 630
# KERNEL: GOOD: Real: 0 == Expected: 0, Time: 650
# KERNEL: GOOD: Real: 1 == Expected: 1, Time: 670
# KERNEL: GOOD: Real: 1 == Expected: 1, Time: 690
# KERNEL: GOOD: Real: 1 == Expected: 1, Time: 710
# KERNEL: GOOD: Real: 1 == Expected: 1, Time: 730
# KERNEL: GOOD: Real: 0 == Expected: 0, Time: 750
# KERNEL: GOOD: Real: 1 == Expected: 1, Time: 770
# KERNEL: GOOD: Real: 0 == Expected: 0, Time: 790
# KERNEL: GOOD: Real: 0 == Expected: 0, Time: 810
# KERNEL: GOOD: Real: 0 == Expected: 0, Time: 830
# KERNEL: GOOD: Real: 0 == Expected: 0, Time: 850
# KERNEL: GOOD: Real: 0 == Expected: 0, Time: 870
# KERNEL: GOOD: Real: 1 == Expected: 1, Time: 890
# KERNEL: GOOD: Real: 1 == Expected: 1, Time: 910
# KERNEL: GOOD: Real: 0 == Expected: 0, Time: 930
# KERNEL: GOOD: Real: 0 == Expected: 0, Time: 950
# KERNEL: GOOD: Real: 0 == Expected: 0, Time: 970
# KERNEL: GOOD: Real: 1 == Expected: 1, Time: 990
# KERNEL: GOOD: Real: 1 == Expected: 1, Time: 1010
# KERNEL: GOOD: Real: 1 == Expected: 1, Time: 1030
# KERNEL: GOOD: Real: 1 == Expected: 1, Time: 1050
# KERNEL: GOOD: Real: 1 == Expected: 1, Time: 1070
# KERNEL: GOOD: Real: 0 == Expected: 0, Time: 1090
# KERNEL: GOOD: Real: 1 == Expected: 1, Time: 1110
# KERNEL: GOOD: Real: 1 == Expected: 1, Time: 1130
# KERNEL: GOOD: Real: 0 == Expected: 0, Time: 1150
# KERNEL: GOOD: Real: 0 == Expected: 0, Time: 1170
# KERNEL: GOOD: Real: 1 == Expected: 1, Time: 1190
# KERNEL: GOOD: Real: 1 == Expected: 1, Time: 1210
# KERNEL: GOOD: Real: 1 == Expected: 1, Time: 1230
# KERNEL: GOOD: Real: 1 == Expected: 1, Time: 1250
# KERNEL: GOOD: Real: 1 == Expected: 1, Time: 1270
# KERNEL: GOOD: Real: 0 == Expected: 0, Time: 1290
# KERNEL: GOOD: Real: 0 == Expected: 0, Time: 1310
# KERNEL: GOOD: Real: 0 == Expected: 0, Time: 1330
# KERNEL: GOOD: Real: 0 == Expected: 0, Time: 1350
# KERNEL: GOOD: Real: 0 == Expected: 0, Time: 1370
# KERNEL: GOOD: Real: 1 == Expected: 1, Time: 1390
# KERNEL: GOOD: Real: 1 == Expected: 1, Time: 1410
# KERNEL: GOOD: Real: 0 == Expected: 0, Time: 1430
# KERNEL: GOOD: Real: 0 == Expected: 0, Time: 1450
# KERNEL: GOOD: Real: 0 == Expected: 0, Time: 1470
# KERNEL: GOOD: Real: 1 == Expected: 1, Time: 1490
# KERNEL: GOOD: Real: 1 == Expected: 1, Time: 1510
# KERNEL: GOOD: Real: 0 == Expected: 0, Time: 1530
# KERNEL: GOOD: Real: 0 == Expected: 0, Time: 1550
# KERNEL: GOOD: Real: 1 == Expected: 1, Time: 1570
# KERNEL: GOOD: Real: 0 == Expected: 0, Time: 1590
# KERNEL: GOOD: Real: 0 == Expected: 0, Time: 1610
# KERNEL: GOOD: Real: 1 == Expected: 1, Time: 1630
# KERNEL: GOOD: Real: 0 == Expected: 0, Time: 1650
# KERNEL: GOOD: Real: 0 == Expected: 0, Time: 1670
# KERNEL: GOOD: Real: 0 == Expected: 0, Time: 1690
# KERNEL: GOOD: Real: 1 == Expected: 1, Time: 1710
# KERNEL: GOOD: Real: 0 == Expected: 0, Time: 1730
# KERNEL: GOOD: Real: 0 == Expected: 0, Time: 1750
# KERNEL: GOOD: Real: 1 == Expected: 1, Time: 1770
# KERNEL: GOOD: Real: 1 == Expected: 1, Time: 1790
# KERNEL: GOOD: Real: 1 == Expected: 1, Time: 1810
# KERNEL: GOOD: Real: 1 == Expected: 1, Time: 1830
# KERNEL: GOOD: Real: 0 == Expected: 0, Time: 1850
# KERNEL: GOOD: Real: 0 == Expected: 0, Time: 1870
# KERNEL: GOOD: Real: 1 == Expected: 1, Time: 1890
# KERNEL: GOOD: Real: 1 == Expected: 1, Time: 1910
# KERNEL: GOOD: Real: 0 == Expected: 0, Time: 1930
# KERNEL: GOOD: Real: 0 == Expected: 0, Time: 1950
# KERNEL: GOOD: Real: 0 == Expected: 0, Time: 1970
# KERNEL: GOOD: Real: 0 == Expected: 0, Time: 1990
# RUNTIME: Info: RUNTIME_0068 test.sv (29): $finish called.
# KERNEL: Time: 1990 ps,  Iteration: 1,  Instance: /testbench,  Process: @INITIAL#51_1@.
# KERNEL: stopped at time: 1990 ps
# VSIM: Simulation has finished. There are no more test vectors to simulate.
endsim
# VSIM: Simulation has finished.
asim -O5 +access +r +m+testbench testbench
# ELBREAD: Elaboration process.
# ELBREAD: Elaboration time 0.1 [s].
# VSIM: Stack memory: 32MB
# VSIM: Retval memory: 32MB
# 
# KERNEL: Main thread initiated.
# KERNEL: Kernel process initialization phase.
# ELAB2: Elaboration final pass...
# ELAB2: Create instances ...
# KERNEL: Time resolution set to 1ps.
# ELAB2: Create instances complete.
# SLP: Started
# SLP: Finished. Using existing simulator library
# SLP: 0 primitives and 2 (66.67%) other processes in SLP
# SLP: 3 (0.85%) signals in SLP and 6 (1.70%) interface signals
# ELAB2: Elaboration final pass complete - time: 0.1 [s].
# KERNEL: SLP loading done - time: 0.7 [s].
# KERNEL: Warning: You are using the Active-HDL Student Edition. The performance of simulation is running at a reduced rate.
# KERNEL: Warning: Contact Aldec for available upgrade options - sales@aldec.com.
# KERNEL: SLP simulation initialization done - time: 0.0 [s].
# KERNEL: Kernel process initialization done.
# Allocation: Simulator allocated 5593 kB (elbread=459 elab2=4967 kernel=166 sdf=0)
# KERNEL: ASDB file was created in location \\Mac\Home\Documents\Labos\Verificacion\Lab1\Lab\src\wave.asdb
#  16:45, lunes, 22 de enero de 2024
#  Simulation has been initialized
run 100 ns
# KERNEL: GOOD: Real: 1 == Expected: 1, Time: 30
# KERNEL: GOOD: Real: 1 == Expected: 1, Time: 50
# KERNEL: GOOD: Real: 0 == Expected: 0, Time: 70
# KERNEL: GOOD: Real: 0 == Expected: 0, Time: 90
# KERNEL: GOOD: Real: 0 == Expected: 0, Time: 110
# KERNEL: GOOD: Real: 0 == Expected: 0, Time: 130
# KERNEL: GOOD: Real: 0 == Expected: 0, Time: 150
# KERNEL: GOOD: Real: 0 == Expected: 0, Time: 170
# KERNEL: GOOD: Real: 1 == Expected: 1, Time: 190
# KERNEL: GOOD: Real: 0 == Expected: 0, Time: 210
# KERNEL: GOOD: Real: 0 == Expected: 0, Time: 230
# KERNEL: GOOD: Real: 1 == Expected: 1, Time: 250
# KERNEL: GOOD: Real: 0 == Expected: 0, Time: 270
# KERNEL: GOOD: Real: 0 == Expected: 0, Time: 290
# KERNEL: GOOD: Real: 1 == Expected: 1, Time: 310
# KERNEL: GOOD: Real: 0 == Expected: 0, Time: 330
# KERNEL: GOOD: Real: 1 == Expected: 1, Time: 350
# KERNEL: GOOD: Real: 0 == Expected: 0, Time: 370
# KERNEL: GOOD: Real: 1 == Expected: 1, Time: 390
# KERNEL: GOOD: Real: 0 == Expected: 0, Time: 410
# KERNEL: GOOD: Real: 0 == Expected: 0, Time: 430
# KERNEL: GOOD: Real: 1 == Expected: 1, Time: 450
# KERNEL: GOOD: Real: 0 == Expected: 0, Time: 470
# KERNEL: GOOD: Real: 1 == Expected: 1, Time: 490
# KERNEL: GOOD: Real: 1 == Expected: 1, Time: 510
# KERNEL: GOOD: Real: 1 == Expected: 1, Time: 530
# KERNEL: GOOD: Real: 0 == Expected: 0, Time: 550
# KERNEL: GOOD: Real: 1 == Expected: 1, Time: 570
# KERNEL: GOOD: Real: 0 == Expected: 0, Time: 590
# KERNEL: GOOD: Real: 0 == Expected: 0, Time: 610
# KERNEL: GOOD: Real: 0 == Expected: 0, Time: 630
# KERNEL: GOOD: Real: 0 == Expected: 0, Time: 650
# KERNEL: GOOD: Real: 1 == Expected: 1, Time: 670
# KERNEL: GOOD: Real: 1 == Expected: 1, Time: 690
# KERNEL: GOOD: Real: 1 == Expected: 1, Time: 710
# KERNEL: GOOD: Real: 1 == Expected: 1, Time: 730
# KERNEL: GOOD: Real: 0 == Expected: 0, Time: 750
# KERNEL: GOOD: Real: 1 == Expected: 1, Time: 770
# KERNEL: GOOD: Real: 0 == Expected: 0, Time: 790
# KERNEL: GOOD: Real: 0 == Expected: 0, Time: 810
# KERNEL: GOOD: Real: 0 == Expected: 0, Time: 830
# KERNEL: GOOD: Real: 0 == Expected: 0, Time: 850
# KERNEL: GOOD: Real: 0 == Expected: 0, Time: 870
# KERNEL: GOOD: Real: 1 == Expected: 1, Time: 890
# KERNEL: GOOD: Real: 1 == Expected: 1, Time: 910
# KERNEL: GOOD: Real: 0 == Expected: 0, Time: 930
# KERNEL: GOOD: Real: 0 == Expected: 0, Time: 950
# KERNEL: GOOD: Real: 0 == Expected: 0, Time: 970
# KERNEL: GOOD: Real: 1 == Expected: 1, Time: 990
# KERNEL: GOOD: Real: 1 == Expected: 1, Time: 1010
# KERNEL: GOOD: Real: 1 == Expected: 1, Time: 1030
# KERNEL: GOOD: Real: 1 == Expected: 1, Time: 1050
# KERNEL: GOOD: Real: 1 == Expected: 1, Time: 1070
# KERNEL: GOOD: Real: 0 == Expected: 0, Time: 1090
# KERNEL: GOOD: Real: 1 == Expected: 1, Time: 1110
# KERNEL: GOOD: Real: 1 == Expected: 1, Time: 1130
# KERNEL: GOOD: Real: 0 == Expected: 0, Time: 1150
# KERNEL: GOOD: Real: 0 == Expected: 0, Time: 1170
# KERNEL: GOOD: Real: 1 == Expected: 1, Time: 1190
# KERNEL: GOOD: Real: 1 == Expected: 1, Time: 1210
# KERNEL: GOOD: Real: 1 == Expected: 1, Time: 1230
# KERNEL: GOOD: Real: 1 == Expected: 1, Time: 1250
# KERNEL: GOOD: Real: 1 == Expected: 1, Time: 1270
# KERNEL: GOOD: Real: 0 == Expected: 0, Time: 1290
# KERNEL: GOOD: Real: 0 == Expected: 0, Time: 1310
# KERNEL: GOOD: Real: 0 == Expected: 0, Time: 1330
# KERNEL: GOOD: Real: 0 == Expected: 0, Time: 1350
# KERNEL: GOOD: Real: 0 == Expected: 0, Time: 1370
# KERNEL: GOOD: Real: 1 == Expected: 1, Time: 1390
# KERNEL: GOOD: Real: 1 == Expected: 1, Time: 1410
# KERNEL: GOOD: Real: 0 == Expected: 0, Time: 1430
# KERNEL: GOOD: Real: 0 == Expected: 0, Time: 1450
# KERNEL: GOOD: Real: 0 == Expected: 0, Time: 1470
# KERNEL: GOOD: Real: 1 == Expected: 1, Time: 1490
# KERNEL: GOOD: Real: 1 == Expected: 1, Time: 1510
# KERNEL: GOOD: Real: 0 == Expected: 0, Time: 1530
# KERNEL: GOOD: Real: 0 == Expected: 0, Time: 1550
# KERNEL: GOOD: Real: 1 == Expected: 1, Time: 1570
# KERNEL: GOOD: Real: 0 == Expected: 0, Time: 1590
# KERNEL: GOOD: Real: 0 == Expected: 0, Time: 1610
# KERNEL: GOOD: Real: 1 == Expected: 1, Time: 1630
# KERNEL: GOOD: Real: 0 == Expected: 0, Time: 1650
# KERNEL: GOOD: Real: 0 == Expected: 0, Time: 1670
# KERNEL: GOOD: Real: 0 == Expected: 0, Time: 1690
# KERNEL: GOOD: Real: 1 == Expected: 1, Time: 1710
# KERNEL: GOOD: Real: 0 == Expected: 0, Time: 1730
# KERNEL: GOOD: Real: 0 == Expected: 0, Time: 1750
# KERNEL: GOOD: Real: 1 == Expected: 1, Time: 1770
# KERNEL: GOOD: Real: 1 == Expected: 1, Time: 1790
# KERNEL: GOOD: Real: 1 == Expected: 1, Time: 1810
# KERNEL: GOOD: Real: 1 == Expected: 1, Time: 1830
# KERNEL: GOOD: Real: 0 == Expected: 0, Time: 1850
# KERNEL: GOOD: Real: 0 == Expected: 0, Time: 1870
# KERNEL: GOOD: Real: 1 == Expected: 1, Time: 1890
# KERNEL: GOOD: Real: 1 == Expected: 1, Time: 1910
# KERNEL: GOOD: Real: 0 == Expected: 0, Time: 1930
# KERNEL: GOOD: Real: 0 == Expected: 0, Time: 1950
# KERNEL: GOOD: Real: 0 == Expected: 0, Time: 1970
# KERNEL: GOOD: Real: 0 == Expected: 0, Time: 1990
# RUNTIME: Info: RUNTIME_0068 test.sv (29): $finish called.
# KERNEL: Time: 1990 ps,  Iteration: 1,  Instance: /testbench,  Process: @INITIAL#51_1@.
# KERNEL: stopped at time: 1990 ps
# VSIM: Simulation has finished. There are no more test vectors to simulate.
endsim
# VSIM: Simulation has finished.
asim -O5 +access +r +m+testbench testbench
# ELBREAD: Elaboration process.
# ELBREAD: Elaboration time 0.1 [s].
# VSIM: Stack memory: 32MB
# VSIM: Retval memory: 32MB
# 
# KERNEL: Main thread initiated.
# KERNEL: Kernel process initialization phase.
# ELAB2: Elaboration final pass...
# ELAB2: Create instances ...
# KERNEL: Time resolution set to 1ps.
# ELAB2: Create instances complete.
# SLP: Started
# SLP: Finished. Using existing simulator library
# SLP: 0 primitives and 2 (66.67%) other processes in SLP
# SLP: 3 (0.85%) signals in SLP and 6 (1.70%) interface signals
# ELAB2: Elaboration final pass complete - time: 0.1 [s].
# KERNEL: SLP loading done - time: 0.1 [s].
# KERNEL: Warning: You are using the Active-HDL Student Edition. The performance of simulation is running at a reduced rate.
# KERNEL: Warning: Contact Aldec for available upgrade options - sales@aldec.com.
# KERNEL: SLP simulation initialization done - time: 0.0 [s].
# KERNEL: Kernel process initialization done.
# Allocation: Simulator allocated 5593 kB (elbread=459 elab2=4967 kernel=166 sdf=0)
# KERNEL: ASDB file was created in location \\Mac\Home\Documents\Labos\Verificacion\Lab1\Lab\src\wave.asdb
#  17:05, lunes, 22 de enero de 2024
#  Simulation has been initialized
run
# KERNEL: GOOD: Real: 1 == Expected: 1, Time: 30
# KERNEL: GOOD: Real: 1 == Expected: 1, Time: 50
# KERNEL: GOOD: Real: 0 == Expected: 0, Time: 70
# KERNEL: GOOD: Real: 0 == Expected: 0, Time: 90
# KERNEL: GOOD: Real: 0 == Expected: 0, Time: 110
# KERNEL: GOOD: Real: 0 == Expected: 0, Time: 130
# KERNEL: GOOD: Real: 0 == Expected: 0, Time: 150
# KERNEL: GOOD: Real: 0 == Expected: 0, Time: 170
# KERNEL: GOOD: Real: 1 == Expected: 1, Time: 190
# KERNEL: GOOD: Real: 0 == Expected: 0, Time: 210
# KERNEL: GOOD: Real: 0 == Expected: 0, Time: 230
# KERNEL: GOOD: Real: 1 == Expected: 1, Time: 250
# KERNEL: GOOD: Real: 0 == Expected: 0, Time: 270
# KERNEL: GOOD: Real: 0 == Expected: 0, Time: 290
# KERNEL: GOOD: Real: 1 == Expected: 1, Time: 310
# KERNEL: GOOD: Real: 0 == Expected: 0, Time: 330
# KERNEL: GOOD: Real: 1 == Expected: 1, Time: 350
# KERNEL: GOOD: Real: 0 == Expected: 0, Time: 370
# KERNEL: GOOD: Real: 1 == Expected: 1, Time: 390
# KERNEL: GOOD: Real: 0 == Expected: 0, Time: 410
# KERNEL: GOOD: Real: 0 == Expected: 0, Time: 430
# KERNEL: GOOD: Real: 1 == Expected: 1, Time: 450
# KERNEL: GOOD: Real: 0 == Expected: 0, Time: 470
# KERNEL: GOOD: Real: 1 == Expected: 1, Time: 490
# KERNEL: GOOD: Real: 1 == Expected: 1, Time: 510
# KERNEL: GOOD: Real: 1 == Expected: 1, Time: 530
# KERNEL: GOOD: Real: 0 == Expected: 0, Time: 550
# KERNEL: GOOD: Real: 1 == Expected: 1, Time: 570
# KERNEL: GOOD: Real: 0 == Expected: 0, Time: 590
# KERNEL: GOOD: Real: 0 == Expected: 0, Time: 610
# KERNEL: GOOD: Real: 0 == Expected: 0, Time: 630
# KERNEL: GOOD: Real: 0 == Expected: 0, Time: 650
# KERNEL: GOOD: Real: 1 == Expected: 1, Time: 670
# KERNEL: GOOD: Real: 1 == Expected: 1, Time: 690
# KERNEL: GOOD: Real: 1 == Expected: 1, Time: 710
# KERNEL: GOOD: Real: 1 == Expected: 1, Time: 730
# KERNEL: GOOD: Real: 0 == Expected: 0, Time: 750
# KERNEL: GOOD: Real: 1 == Expected: 1, Time: 770
# KERNEL: GOOD: Real: 0 == Expected: 0, Time: 790
# KERNEL: GOOD: Real: 0 == Expected: 0, Time: 810
# KERNEL: GOOD: Real: 0 == Expected: 0, Time: 830
# KERNEL: GOOD: Real: 0 == Expected: 0, Time: 850
# KERNEL: GOOD: Real: 0 == Expected: 0, Time: 870
# KERNEL: GOOD: Real: 1 == Expected: 1, Time: 890
# KERNEL: GOOD: Real: 1 == Expected: 1, Time: 910
# KERNEL: GOOD: Real: 0 == Expected: 0, Time: 930
# KERNEL: GOOD: Real: 0 == Expected: 0, Time: 950
# KERNEL: GOOD: Real: 0 == Expected: 0, Time: 970
# KERNEL: GOOD: Real: 1 == Expected: 1, Time: 990
# KERNEL: GOOD: Real: 1 == Expected: 1, Time: 1010
# KERNEL: GOOD: Real: 1 == Expected: 1, Time: 1030
# KERNEL: GOOD: Real: 1 == Expected: 1, Time: 1050
# KERNEL: GOOD: Real: 1 == Expected: 1, Time: 1070
# KERNEL: GOOD: Real: 0 == Expected: 0, Time: 1090
# KERNEL: GOOD: Real: 1 == Expected: 1, Time: 1110
# KERNEL: GOOD: Real: 1 == Expected: 1, Time: 1130
# KERNEL: GOOD: Real: 0 == Expected: 0, Time: 1150
# KERNEL: GOOD: Real: 0 == Expected: 0, Time: 1170
# KERNEL: GOOD: Real: 1 == Expected: 1, Time: 1190
# KERNEL: GOOD: Real: 1 == Expected: 1, Time: 1210
# KERNEL: GOOD: Real: 1 == Expected: 1, Time: 1230
# KERNEL: GOOD: Real: 1 == Expected: 1, Time: 1250
# KERNEL: GOOD: Real: 1 == Expected: 1, Time: 1270
# KERNEL: GOOD: Real: 0 == Expected: 0, Time: 1290
# KERNEL: GOOD: Real: 0 == Expected: 0, Time: 1310
# KERNEL: GOOD: Real: 0 == Expected: 0, Time: 1330
# KERNEL: GOOD: Real: 0 == Expected: 0, Time: 1350
# KERNEL: GOOD: Real: 0 == Expected: 0, Time: 1370
# KERNEL: GOOD: Real: 1 == Expected: 1, Time: 1390
# KERNEL: GOOD: Real: 1 == Expected: 1, Time: 1410
# KERNEL: GOOD: Real: 0 == Expected: 0, Time: 1430
# KERNEL: GOOD: Real: 0 == Expected: 0, Time: 1450
# KERNEL: GOOD: Real: 0 == Expected: 0, Time: 1470
# KERNEL: GOOD: Real: 1 == Expected: 1, Time: 1490
# KERNEL: GOOD: Real: 1 == Expected: 1, Time: 1510
# KERNEL: GOOD: Real: 0 == Expected: 0, Time: 1530
# KERNEL: GOOD: Real: 0 == Expected: 0, Time: 1550
# KERNEL: GOOD: Real: 1 == Expected: 1, Time: 1570
# KERNEL: GOOD: Real: 0 == Expected: 0, Time: 1590
# KERNEL: GOOD: Real: 0 == Expected: 0, Time: 1610
# KERNEL: GOOD: Real: 1 == Expected: 1, Time: 1630
# KERNEL: GOOD: Real: 0 == Expected: 0, Time: 1650
# KERNEL: GOOD: Real: 0 == Expected: 0, Time: 1670
# KERNEL: GOOD: Real: 0 == Expected: 0, Time: 1690
# KERNEL: GOOD: Real: 1 == Expected: 1, Time: 1710
# KERNEL: GOOD: Real: 0 == Expected: 0, Time: 1730
# KERNEL: GOOD: Real: 0 == Expected: 0, Time: 1750
# KERNEL: GOOD: Real: 1 == Expected: 1, Time: 1770
# KERNEL: GOOD: Real: 1 == Expected: 1, Time: 1790
# KERNEL: GOOD: Real: 1 == Expected: 1, Time: 1810
# KERNEL: GOOD: Real: 1 == Expected: 1, Time: 1830
# KERNEL: GOOD: Real: 0 == Expected: 0, Time: 1850
# KERNEL: GOOD: Real: 0 == Expected: 0, Time: 1870
# KERNEL: GOOD: Real: 1 == Expected: 1, Time: 1890
# KERNEL: GOOD: Real: 1 == Expected: 1, Time: 1910
# KERNEL: GOOD: Real: 0 == Expected: 0, Time: 1930
# KERNEL: GOOD: Real: 0 == Expected: 0, Time: 1950
# KERNEL: GOOD: Real: 0 == Expected: 0, Time: 1970
# KERNEL: GOOD: Real: 0 == Expected: 0, Time: 1990
# RUNTIME: Info: RUNTIME_0068 test.sv (29): $finish called.
# KERNEL: Time: 1990 ps,  Iteration: 1,  Instance: /testbench,  Process: @INITIAL#51_1@.
# KERNEL: stopped at time: 1990 ps
# VSIM: Simulation has finished. There are no more test vectors to simulate.
endsim
# VSIM: Simulation has finished.
asim -O5 +access +r +m+testbench testbench
# ELBREAD: Elaboration process.
# ELBREAD: Elaboration time 0.0 [s].
# VSIM: Stack memory: 32MB
# VSIM: Retval memory: 32MB
# 
# KERNEL: Main thread initiated.
# KERNEL: Kernel process initialization phase.
# ELAB2: Elaboration final pass...
# ELAB2: Create instances ...
# KERNEL: Time resolution set to 1ps.
# ELAB2: Create instances complete.
# SLP: Started
# SLP: Finished. Using existing simulator library
# SLP: 0 primitives and 2 (66.67%) other processes in SLP
# SLP: 3 (0.85%) signals in SLP and 6 (1.70%) interface signals
# ELAB2: Elaboration final pass complete - time: 0.1 [s].
# KERNEL: SLP loading done - time: 0.1 [s].
# KERNEL: Warning: You are using the Active-HDL Student Edition. The performance of simulation is running at a reduced rate.
# KERNEL: Warning: Contact Aldec for available upgrade options - sales@aldec.com.
# KERNEL: SLP simulation initialization done - time: 0.0 [s].
# KERNEL: Kernel process initialization done.
# Allocation: Simulator allocated 5593 kB (elbread=459 elab2=4967 kernel=166 sdf=0)
# KERNEL: ASDB file was created in location \\Mac\Home\Documents\Labos\Verificacion\Lab1\Lab\src\wave.asdb
#  17:39, lunes, 22 de enero de 2024
#  Simulation has been initialized
run 100 ns
# KERNEL: GOOD: Real: 1 == Expected: 1, Time: 30
# KERNEL: GOOD: Real: 1 == Expected: 1, Time: 50
# KERNEL: GOOD: Real: 0 == Expected: 0, Time: 70
# KERNEL: GOOD: Real: 0 == Expected: 0, Time: 90
# KERNEL: GOOD: Real: 0 == Expected: 0, Time: 110
# KERNEL: GOOD: Real: 0 == Expected: 0, Time: 130
# KERNEL: GOOD: Real: 0 == Expected: 0, Time: 150
# KERNEL: GOOD: Real: 0 == Expected: 0, Time: 170
# KERNEL: GOOD: Real: 1 == Expected: 1, Time: 190
# KERNEL: GOOD: Real: 0 == Expected: 0, Time: 210
# KERNEL: GOOD: Real: 0 == Expected: 0, Time: 230
# KERNEL: GOOD: Real: 1 == Expected: 1, Time: 250
# KERNEL: GOOD: Real: 0 == Expected: 0, Time: 270
# KERNEL: GOOD: Real: 0 == Expected: 0, Time: 290
# KERNEL: GOOD: Real: 1 == Expected: 1, Time: 310
# KERNEL: GOOD: Real: 0 == Expected: 0, Time: 330
# KERNEL: GOOD: Real: 1 == Expected: 1, Time: 350
# KERNEL: GOOD: Real: 0 == Expected: 0, Time: 370
# KERNEL: GOOD: Real: 1 == Expected: 1, Time: 390
# KERNEL: GOOD: Real: 0 == Expected: 0, Time: 410
# KERNEL: GOOD: Real: 0 == Expected: 0, Time: 430
# KERNEL: GOOD: Real: 1 == Expected: 1, Time: 450
# KERNEL: GOOD: Real: 0 == Expected: 0, Time: 470
# KERNEL: GOOD: Real: 1 == Expected: 1, Time: 490
# KERNEL: GOOD: Real: 1 == Expected: 1, Time: 510
# KERNEL: GOOD: Real: 1 == Expected: 1, Time: 530
# KERNEL: GOOD: Real: 0 == Expected: 0, Time: 550
# KERNEL: GOOD: Real: 1 == Expected: 1, Time: 570
# KERNEL: GOOD: Real: 0 == Expected: 0, Time: 590
# KERNEL: GOOD: Real: 0 == Expected: 0, Time: 610
# KERNEL: GOOD: Real: 0 == Expected: 0, Time: 630
# KERNEL: GOOD: Real: 0 == Expected: 0, Time: 650
# KERNEL: GOOD: Real: 1 == Expected: 1, Time: 670
# KERNEL: GOOD: Real: 1 == Expected: 1, Time: 690
# KERNEL: GOOD: Real: 1 == Expected: 1, Time: 710
# KERNEL: GOOD: Real: 1 == Expected: 1, Time: 730
# KERNEL: GOOD: Real: 0 == Expected: 0, Time: 750
# KERNEL: GOOD: Real: 1 == Expected: 1, Time: 770
# KERNEL: GOOD: Real: 0 == Expected: 0, Time: 790
# KERNEL: GOOD: Real: 0 == Expected: 0, Time: 810
# KERNEL: GOOD: Real: 0 == Expected: 0, Time: 830
# KERNEL: GOOD: Real: 0 == Expected: 0, Time: 850
# KERNEL: GOOD: Real: 0 == Expected: 0, Time: 870
# KERNEL: GOOD: Real: 1 == Expected: 1, Time: 890
# KERNEL: GOOD: Real: 1 == Expected: 1, Time: 910
# KERNEL: GOOD: Real: 0 == Expected: 0, Time: 930
# KERNEL: GOOD: Real: 0 == Expected: 0, Time: 950
# KERNEL: GOOD: Real: 0 == Expected: 0, Time: 970
# KERNEL: GOOD: Real: 1 == Expected: 1, Time: 990
# KERNEL: GOOD: Real: 1 == Expected: 1, Time: 1010
# KERNEL: GOOD: Real: 1 == Expected: 1, Time: 1030
# KERNEL: GOOD: Real: 1 == Expected: 1, Time: 1050
# KERNEL: GOOD: Real: 1 == Expected: 1, Time: 1070
# KERNEL: GOOD: Real: 0 == Expected: 0, Time: 1090
# KERNEL: GOOD: Real: 1 == Expected: 1, Time: 1110
# KERNEL: GOOD: Real: 1 == Expected: 1, Time: 1130
# KERNEL: GOOD: Real: 0 == Expected: 0, Time: 1150
# KERNEL: GOOD: Real: 0 == Expected: 0, Time: 1170
# KERNEL: GOOD: Real: 1 == Expected: 1, Time: 1190
# KERNEL: GOOD: Real: 1 == Expected: 1, Time: 1210
# KERNEL: GOOD: Real: 1 == Expected: 1, Time: 1230
# KERNEL: GOOD: Real: 1 == Expected: 1, Time: 1250
# KERNEL: GOOD: Real: 1 == Expected: 1, Time: 1270
# KERNEL: GOOD: Real: 0 == Expected: 0, Time: 1290
# KERNEL: GOOD: Real: 0 == Expected: 0, Time: 1310
# KERNEL: GOOD: Real: 0 == Expected: 0, Time: 1330
# KERNEL: GOOD: Real: 0 == Expected: 0, Time: 1350
# KERNEL: GOOD: Real: 0 == Expected: 0, Time: 1370
# KERNEL: GOOD: Real: 1 == Expected: 1, Time: 1390
# KERNEL: GOOD: Real: 1 == Expected: 1, Time: 1410
# KERNEL: GOOD: Real: 0 == Expected: 0, Time: 1430
# KERNEL: GOOD: Real: 0 == Expected: 0, Time: 1450
# KERNEL: GOOD: Real: 0 == Expected: 0, Time: 1470
